{
	"name": "hormiga",
	"dockerComposeFile": ["docker-compose.yml"],
	"service": "hormiga",
	"workspaceFolder": "/hormiga",
	"extensions": [
		"eamodio.gitlens"
	],
	"shutdownAction": "stopCompose",
	"settings":{
		"files.associations": {
			"Dockerfile*": "dockerfile"
		},
		"php.suggest.basic": false,
		"terminal.integrated.fontSize": 16,
		"remote.extensionKind": {
			"ms-azuretools.vscode-docker": "ui"
		}
	}
}
